module credentials_rest_api

go 1.15

require (
	github.com/aws/aws-sdk-go v1.36.15 // indirect
	github.com/golang/snappy v0.0.2 // indirect
	github.com/google/go-cmp v0.5.4 // indirect
	github.com/gorilla/mux v1.8.0
	github.com/klauspost/compress v1.11.4 // indirect
	github.com/kr/text v0.2.0 // indirect
	github.com/tidwall/pretty v1.0.2 // indirect
	go.mongodb.org/mongo-driver v1.4.4
	golang.org/x/crypto v0.0.0-20201221181555-eec23a3978ad // indirect
	golang.org/x/net v0.0.0-20201216054612-986b41b23924 // indirect
	golang.org/x/sync v0.0.0-20201207232520-09787c993a3a // indirect
	golang.org/x/text v0.3.4 // indirect
	golang.org/x/xerrors v0.0.0-20200804184101-5ec99f83aff1 // indirect
	gopkg.in/check.v1 v1.0.0-20201130134442-10cb98267c6c // indirect
	gopkg.in/yaml.v2 v2.4.0 // indirect
	gopkg.in/yaml.v3 v3.0.0-20200615113413-eeeca48fe776 // indirect
)
